          spectro: HERMES
            angle: 0.9200
              sam: 127
            delay: 29697
      nb_channels: 240
            speed: 1800
    chop_position: 2
        chop_phi2: -165
        chop_phi3: -165
               r1: 1.0300
               r2: 0.4690
               dc: 1800
           legend: Channel, Reflectivity, Error

16	1.120173e-05	3.754238e-06
17	1.213545e-05	3.151352e-06
18	1.625233e-05	3.148819e-06
19	2.101346e-05	3.156830e-06
20	2.439821e-05	3.028767e-06
21	2.798826e-05	2.977513e-06
22	3.740513e-05	3.436849e-06
23	4.206654e-05	3.273431e-06
24	5.581088e-05	3.599160e-06
25	6.200063e-05	3.699389e-06
26	7.009598e-05	3.882560e-06
27	8.219514e-05	4.111991e-06
28	9.496432e-05	4.349578e-06
29	1.109931e-04	4.589631e-06
30	1.271129e-04	4.833774e-06
31	1.601957e-04	5.418474e-06
32	1.653994e-04	5.521625e-06
33	1.991320e-04	5.963512e-06
34	2.313504e-04	6.183829e-06
35	2.599039e-04	6.440077e-06
36	2.797145e-04	6.679527e-06
37	3.203607e-04	7.105821e-06
38	3.690116e-04	7.543419e-06
39	4.122428e-04	7.950565e-06
40	4.622034e-04	8.466722e-06
41	4.845985e-04	8.731999e-06
42	5.478059e-04	9.766159e-06
43	5.972567e-04	1.106526e-05
44	6.503387e-04	1.165130e-05
45	7.223207e-04	1.152749e-05
46	8.201304e-04	1.200562e-05
47	9.245291e-04	1.278239e-05
48	9.935142e-04	1.327062e-05
49	1.066182e-03	1.389220e-05
50	1.177773e-03	1.490590e-05
51	1.259131e-03	1.572240e-05
52	1.383749e-03	1.686713e-05
53	1.500098e-03	1.794629e-05
54	1.602477e-03	1.897253e-05
55	1.774024e-03	2.046390e-05
56	1.887594e-03	2.158649e-05
57	2.076042e-03	2.319056e-05
58	2.234192e-03	2.466393e-05
59	2.415836e-03	2.625690e-05
60	2.544406e-03	2.758631e-05
61	2.755916e-03	2.940578e-05
62	2.963778e-03	3.124792e-05
63	3.173126e-03	3.309250e-05
64	3.410410e-03	3.511599e-05
65	3.745845e-03	3.770127e-05
66	3.994128e-03	3.985576e-05
67	4.227863e-03	4.184893e-05
68	4.553190e-03	4.444243e-05
69	4.863643e-03	4.693556e-05
70	5.181590e-03	4.943398e-05
71	5.417914e-03	5.146588e-05
72	5.947231e-03	5.512157e-05
73	6.316674e-03	5.791567e-05
74	6.600930e-03	6.033942e-05
75	7.096469e-03	6.375640e-05
76	7.649356e-03	6.751256e-05
77	8.043022e-03	7.057051e-05
78	8.592684e-03	7.457459e-05
79	9.045153e-03	7.805631e-05
80	9.640054e-03	8.236133e-05
81	1.024947e-02	8.677261e-05
82	1.085694e-02	9.143079e-05
83	1.146248e-02	9.612810e-05
84	1.227438e-02	1.021634e-04
85	1.291059e-02	1.071640e-04
86	1.375732e-02	1.137587e-04
87	1.463611e-02	1.202553e-04
88	1.532486e-02	1.264487e-04
89	1.633424e-02	1.342291e-04
90	1.735782e-02	1.421996e-04
91	1.823268e-02	1.500400e-04
92	1.929239e-02	1.588523e-04
93	2.031620e-02	1.677827e-04
94	2.181129e-02	1.790569e-04
95	2.286077e-02	1.887277e-04
96	2.443071e-02	2.010170e-04
97	2.581138e-02	2.131310e-04
98	2.693769e-02	2.238727e-04
99	2.853029e-02	2.374691e-04
100	3.048325e-02	2.536409e-04
101	3.252961e-02	2.708612e-04
102	3.377215e-02	2.837341e-04
103	3.631350e-02	3.045546e-04
104	3.822468e-02	3.223488e-04
105	4.037664e-02	3.412288e-04
106	4.260700e-02	3.623430e-04
107	4.578644e-02	3.889190e-04
108	4.779612e-02	4.093708e-04
109	5.151609e-02	4.408047e-04
110	5.434192e-02	4.669672e-04
111	5.734240e-02	4.952309e-04
112	6.116596e-02	5.299434e-04
113	6.491908e-02	5.644019e-04
114	6.848591e-02	5.970591e-04
115	7.326139e-02	6.409026e-04
116	7.676521e-02	6.762649e-04
117	8.260168e-02	7.278328e-04
118	8.888915e-02	7.847809e-04
119	9.387604e-02	8.326765e-04
120	1.000887e-01	8.897829e-04
121	1.072079e-01	9.568215e-04
122	1.135667e-01	1.013679e-03
123	1.225975e-01	1.093894e-03
124	1.325804e-01	1.181671e-03
125	1.418020e-01	1.267216e-03
126	1.513607e-01	1.353045e-03
127	1.645509e-01	1.467746e-03
128	1.776126e-01	1.581756e-03
129	1.952035e-01	1.735793e-03
130	2.092436e-01	1.860788e-03
131	2.320249e-01	2.045395e-03
132	2.595803e-01	2.273172e-03
133	2.883255e-01	2.500046e-03
134	3.242115e-01	2.786331e-03
135	3.706760e-01	3.157233e-03
136	4.126423e-01	3.492946e-03
137	4.624175e-01	3.885647e-03
138	5.153800e-01	4.311724e-03
139	5.787188e-01	4.830395e-03
140	6.319885e-01	5.257568e-03
141	6.888617e-01	5.757325e-03
142	7.485689e-01	6.296477e-03
143	8.007121e-01	6.785132e-03
144	8.396656e-01	7.198170e-03
145	8.827981e-01	7.663251e-03
146	9.168321e-01	8.041041e-03
147	9.462208e-01	8.445524e-03
148	9.741674e-01	8.833292e-03
149	9.853901e-01	9.094366e-03
150	9.926525e-01	9.306292e-03
151	9.926109e-01	9.511720e-03
152	9.917329e-01	9.663069e-03
153	1.000689e+00	9.994615e-03
154	1.005823e+00	1.023630e-02
155	9.964804e-01	1.035085e-02
156	1.002946e+00	1.063472e-02
157	1.002476e+00	1.085188e-02
158	1.012657e+00	1.119870e-02
159	1.006189e+00	1.135725e-02
160	1.008400e+00	1.162035e-02
161	1.000225e+00	1.174912e-02
162	1.014578e+00	1.214637e-02
163	1.010856e+00	1.238994e-02
164	1.007810e+00	1.267137e-02
165	1.008936e+00	1.293783e-02
166	1.007721e+00	1.315600e-02
167	1.022574e+00	1.368986e-02
168	1.003394e+00	1.369176e-02
169	9.981293e-01	1.389597e-02
170	9.976958e-01	1.416786e-02
171	9.942518e-01	1.440844e-02
172	9.987049e-01	1.481139e-02
173	1.009653e+00	1.535080e-02
174	9.923164e-01	1.534991e-02
175	1.016081e+00	1.609560e-02
176	9.996219e-01	1.613933e-02
177	1.020817e+00	1.691662e-02
178	1.000550e+00	1.686710e-02
179	9.957029e-01	1.718157e-02
180	9.990978e-01	1.750944e-02
181	1.019494e+00	1.841240e-02
182	1.003495e+00	1.841382e-02
183	9.780959e-01	1.817967e-02
184	1.002804e+00	1.918701e-02
185	1.002996e+00	1.954662e-02
186	9.954110e-01	1.973340e-02
187	1.033075e+00	2.101587e-02
188	1.005506e+00	2.096234e-02
189	9.991439e-01	2.107236e-02
190	1.008135e+00	2.192268e-02
191	9.845851e-01	2.175887e-02
192	1.038520e+00	2.356033e-02
193	1.002379e+00	2.304107e-02
194	1.011521e+00	2.370169e-02
195	1.026803e+00	2.452862e-02
196	1.054508e+00	2.594785e-02
197	9.991496e-01	2.507559e-02
198	1.008178e+00	2.560973e-02
199	1.022153e+00	2.686955e-02
200	1.032979e+00	2.767902e-02
201	1.007921e+00	2.765871e-02
202	1.026599e+00	2.877601e-02
203	1.038491e+00	2.980275e-02
204	1.033332e+00	3.023973e-02
205	1.008043e+00	2.984073e-02
206	1.022914e+00	3.121966e-02
207	9.987904e-01	3.114596e-02
208	1.014289e+00	3.222049e-02
209	1.022505e+00	3.318091e-02
210	1.036229e+00	3.453494e-02
211	1.033276e+00	3.493230e-02
212	1.034150e+00	3.608182e-02
213	1.018889e+00	3.607182e-02
214	9.933168e-01	3.602184e-02
215	1.018974e+00	3.768420e-02
216	9.912283e-01	3.723228e-02
217	1.027501e+00	3.982075e-02
218	1.036011e+00	4.113426e-02
219	9.675086e-01	3.896071e-02
220	1.052088e+00	4.338031e-02
221	9.383292e-01	3.945395e-02
222	1.042645e+00	4.525863e-02
223	1.011208e+00	4.457189e-02
224	1.041287e+00	4.687877e-02
225	9.154637e-01	4.216289e-02
226	1.012016e+00	4.818336e-02
227	9.795756e-01	4.740333e-02
228	1.091867e+00	5.475367e-02
229	9.637318e-01	4.842130e-02
230	1.002561e+00	5.194531e-02
231	1.084189e+00	5.833883e-02
232	1.034472e+00	5.488192e-02
233	1.088385e+00	6.145801e-02
234	1.018662e+00	5.709428e-02
235	9.648129e-01	5.575457e-02
236	1.062784e+00	6.338273e-02
237	1.004976e+00	6.244720e-02
238	9.944362e-01	6.603595e-02
239	9.809590e-01	6.913997e-02
240	9.963026e-01	7.775300e-02
241	1.033056e+00	8.551926e-02
242	9.001312e-01	7.884686e-02
243	1.188564e+00	1.188667e-01
244	9.329983e-01	9.543386e-02
245	1.160553e+00	1.331040e-01
246	1.022504e+00	1.276788e-01
247	1.062209e+00	1.457170e-01
248	8.529128e-01	1.230492e-01
249	1.007455e+00	1.665240e-01
250	1.017609e+00	1.935166e-01
251	9.000148e-01	1.872437e-01
252	1.089887e+00	2.798845e-01
253	1.106621e+00	3.344315e-01
254	1.238481e+00	4.704937e-01
255	8.739460e-01	4.626918e-01
